<svg xmlns="http://www.w3.org/2000/svg" xmlns:xlink="http://www.w3.org/1999/xlink" viewBox="1990 461 812 375">
  <defs>
    <style>
      .cls-1 {
        clip-path: url(#clip-iPhone_X_8);
      }

      .cls-2, .cls-3, .cls-4 {
        fill: rgba(0,0,0,0.1);
        stroke: #9d9d9d;
      }

      .cls-2 {
        stroke-miterlimit: 10;
      }

      .cls-4 {
        opacity: 0.5;
      }

      .cls-5 {
        stroke: none;
      }

      .cls-6 {
        fill: none;
      }

      .cls-7 {
        fill: #f5f5f5;
      }
    </style>
    <clipPath id="clip-iPhone_X_8">
      <rect x="1990" y="461" width="812" height="375"/>
    </clipPath>
  </defs>
  <g id="iPhone_X_8" data-name="iPhone X – 8" class="cls-1">
    <rect class="cls-7" x="1990" y="461" width="812" height="375"/>
    <g id="Groupe_1" data-name="Groupe 1" transform="translate(1987.154 461)">
      <path id="Tracé_7" data-name="Tracé 7" class="cls-2" d="M.5,15.574V45.522L26.447,60.5,52.393,45.522V15.574L26.447.6Z" transform="translate(296.942 292.847)"/>
      <path id="Tracé_9" data-name="Tracé 9" class="cls-2" d="M.5,15.574V45.522L26.447,60.5,52.393,45.522V15.574L26.447.6Z" transform="translate(410.135 292.847)"/>
      <path id="Tracé_10" data-name="Tracé 10" class="cls-2" d="M.5,15.574V45.522L26.447,60.5,52.393,45.522V15.574L26.447.6Z" transform="translate(353.538 292.847)"/>
      <path id="Tracé_11" data-name="Tracé 11" class="cls-2" d="M.5,15.574V45.522L26.447,60.5,52.393,45.522V15.574L26.447.6Z" transform="translate(240.346 292.847)"/>
      <path id="Tracé_12" data-name="Tracé 12" class="cls-2" d="M.5,15.574V45.522L26.447,60.5,52.393,45.522V15.574L26.447.6Z" transform="translate(466.921 292.847)"/>
      <path id="Tracé_13" data-name="Tracé 13" class="cls-2" d="M.5,15.574V45.522L26.447,60.5,52.393,45.522V15.574L26.447.6Z" transform="translate(524.323 292.847)"/>
    </g>
    <g id="Ellipse_3" data-name="Ellipse 3" class="cls-3" transform="translate(2150.453 731.821)">
      <ellipse class="cls-5" cx="26.28" cy="26.28" rx="26.28" ry="26.28"/>
      <ellipse class="cls-6" cx="26.28" cy="26.28" rx="25.78" ry="25.78"/>
    </g>
    <g id="Ellipse_4" data-name="Ellipse 4" class="cls-4" transform="translate(2588.986 731.821)">
      <ellipse class="cls-5" cx="26.28" cy="26.28" rx="26.28" ry="26.28"/>
      <ellipse class="cls-6" cx="26.28" cy="26.28" rx="25.78" ry="25.78"/>
    </g>
  </g>
</svg>
