<svg xmlns="http://www.w3.org/2000/svg" xmlns:xlink="http://www.w3.org/1999/xlink" viewBox="3325 7893 375 812">
  <defs>
    <style>
      .cls-1 {
        clip-path: url(#clip-iPhone_X_60);
      }

      .cls-2 {
        opacity: 0.08;
      }

      .cls-3 {
        fill: #fff;
        opacity: 0.5;
      }

      .cls-4 {
        fill: rgba(0,0,0,0.1);
      }

      .cls-10, .cls-5, .cls-9 {
        fill: rgba(0,0,0,0.28);
      }

      .cls-6 {
        fill: rgba(0,0,0,0.39);
      }

      .cls-7 {
        opacity: 0.05;
      }

      .cls-8 {
        opacity: 0.13;
      }

      .cls-10, .cls-11, .cls-9 {
        stroke: #707070;
      }

      .cls-9 {
        opacity: 0.28;
      }

      .cls-10 {
        opacity: 0.56;
      }

      .cls-11 {
        fill: rgba(0,0,0,0.43);
        opacity: 0.61;
      }

      .cls-12 {
        stroke: none;
      }

      .cls-13 {
        fill: none;
      }

      .cls-14 {
        fill: #f5f5f5;
      }
    </style>
    <clipPath id="clip-iPhone_X_60">
      <rect x="3325" y="7893" width="375" height="812"/>
    </clipPath>
  </defs>
  <g id="iPhone_X_60" data-name="iPhone X – 60" class="cls-1">
    <rect class="cls-14" x="3325" y="7893" width="375" height="812"/>
    <g id="Groupe_36" data-name="Groupe 36" class="cls-2" transform="matrix(0.966, -0.259, 0.259, 0.966, 3225.615, 7905.185)">
      <path id="Tracé_43" data-name="Tracé 43" class="cls-3" d="M.5,75.815v150.43L130.831,301.46l130.331-75.215V75.815L130.831.6Z" transform="translate(56.771 255.133)"/>
      <path id="Tracé_44" data-name="Tracé 44" class="cls-4" d="M5261.355,1952.073l-130.225-76.891v-151.26l130.225,67.437Z" transform="translate(-5073.754 -1392.441)"/>
      <path id="Tracé_45" data-name="Tracé 45" class="cls-5" d="M130.224,0,0,76.851V228.032l130.225-67.4Z" transform="translate(317.447 559.513) rotate(180)"/>
      <path id="Tracé_46" data-name="Tracé 46" class="cls-6" d="M134.022,0,1.047,72.388,0,222.875l124.783-76.139Z" transform="translate(248.603 216.347) rotate(59)"/>
    </g>
    <g id="Groupe_25" data-name="Groupe 25" class="cls-7" transform="translate(3702.129 7892.481) rotate(45)">
      <path id="Tracé_43-2" data-name="Tracé 43" class="cls-3" d="M.5,75.815v150.43L130.831,301.46l130.331-75.215V75.815L130.831.6Z" transform="translate(56.771 255.133)"/>
      <path id="Tracé_44-2" data-name="Tracé 44" class="cls-4" d="M5261.355,1952.073l-130.225-76.891v-151.26l130.225,67.437Z" transform="translate(-5073.754 -1392.441)"/>
      <path id="Tracé_45-2" data-name="Tracé 45" class="cls-5" d="M130.224,0,0,76.851V228.032l130.225-67.4Z" transform="translate(317.447 559.513) rotate(180)"/>
      <path id="Tracé_46-2" data-name="Tracé 46" class="cls-6" d="M134.022,0,1.047,72.388,0,222.875l124.783-76.139Z" transform="translate(248.603 216.347) rotate(59)"/>
    </g>
    <g id="Groupe_31" data-name="Groupe 31" class="cls-8" transform="translate(3956.101 8184.815) rotate(93)">
      <path id="Tracé_43-3" data-name="Tracé 43" class="cls-3" d="M.5,75.815v150.43L130.831,301.46l130.331-75.215V75.815L130.831.6Z" transform="translate(56.771 255.133)"/>
      <path id="Tracé_44-3" data-name="Tracé 44" class="cls-4" d="M5261.355,1952.073l-130.225-76.891v-151.26l130.225,67.437Z" transform="translate(-5073.754 -1392.441)"/>
      <path id="Tracé_45-3" data-name="Tracé 45" class="cls-5" d="M130.224,0,0,76.851V228.032l130.225-67.4Z" transform="translate(317.447 559.513) rotate(180)"/>
      <path id="Tracé_46-3" data-name="Tracé 46" class="cls-6" d="M134.022,0,1.047,72.388,0,222.875l124.783-76.139Z" transform="translate(248.603 216.347) rotate(59)"/>
    </g>
    <g id="Groupe_32" data-name="Groupe 32" class="cls-7" transform="matrix(-0.883, 0.469, -0.469, -0.883, 3847.52, 8629.86)">
      <path id="Tracé_43-4" data-name="Tracé 43" class="cls-3" d="M.5,75.815v150.43L130.831,301.46l130.331-75.215V75.815L130.831.6Z" transform="translate(56.771 255.133)"/>
      <path id="Tracé_44-4" data-name="Tracé 44" class="cls-4" d="M5261.355,1952.073l-130.225-76.891v-151.26l130.225,67.437Z" transform="translate(-5073.754 -1392.441)"/>
      <path id="Tracé_45-4" data-name="Tracé 45" class="cls-5" d="M130.224,0,0,76.851V228.032l130.225-67.4Z" transform="translate(317.447 559.513) rotate(180)"/>
      <path id="Tracé_46-4" data-name="Tracé 46" class="cls-6" d="M134.022,0,1.047,72.388,0,222.875l124.783-76.139Z" transform="translate(248.603 216.347) rotate(59)"/>
    </g>
    <g id="Groupe_33" data-name="Groupe 33" class="cls-7" transform="translate(3608.311 8726.533) rotate(-173)">
      <path id="Tracé_43-5" data-name="Tracé 43" class="cls-3" d="M.5,75.815v150.43L130.831,301.46l130.331-75.215V75.815L130.831.6Z" transform="translate(56.771 255.133)"/>
      <path id="Tracé_44-5" data-name="Tracé 44" class="cls-4" d="M5261.355,1952.073l-130.225-76.891v-151.26l130.225,67.437Z" transform="translate(-5073.754 -1392.441)"/>
      <path id="Tracé_45-5" data-name="Tracé 45" class="cls-5" d="M130.224,0,0,76.851V228.032l130.225-67.4Z" transform="translate(317.447 559.513) rotate(180)"/>
      <path id="Tracé_46-5" data-name="Tracé 46" class="cls-6" d="M134.022,0,1.047,72.388,0,222.875l124.783-76.139Z" transform="translate(248.603 216.347) rotate(59)"/>
    </g>
    <g id="Groupe_34" data-name="Groupe 34" transform="matrix(0.966, 0.259, -0.259, 0.966, 3434.9, 7872.095)">
      <path id="Tracé_43-6" data-name="Tracé 43" class="cls-3" d="M.5,75.815v150.43L130.831,301.46l130.331-75.215V75.815L130.831.6Z" transform="translate(56.771 255.133)"/>
      <path id="Tracé_44-6" data-name="Tracé 44" class="cls-4" d="M5261.355,1952.073l-130.225-76.891v-151.26l130.225,67.437Z" transform="translate(-5073.754 -1392.441)"/>
      <path id="Tracé_45-6" data-name="Tracé 45" class="cls-5" d="M130.224,0,0,76.851V228.032l130.225-67.4Z" transform="translate(317.447 559.513) rotate(180)"/>
      <path id="Tracé_46-6" data-name="Tracé 46" class="cls-6" d="M134.022,0,1.047,72.388,0,222.875l124.783-76.139Z" transform="translate(248.603 216.347) rotate(59)"/>
    </g>
    <g id="Groupe_37" data-name="Groupe 37" transform="matrix(0.966, 0.259, -0.259, 0.966, 3434.9, 7872.095)">
      <path id="Tracé_43-7" data-name="Tracé 43" class="cls-3" d="M.5,75.815v150.43L130.831,301.46l130.331-75.215V75.815L130.831.6Z" transform="translate(56.771 255.133)"/>
      <path id="Tracé_44-7" data-name="Tracé 44" class="cls-4" d="M5261.355,1952.073l-130.225-76.891v-151.26l130.225,67.437Z" transform="translate(-5073.754 -1392.441)"/>
      <path id="Tracé_45-7" data-name="Tracé 45" class="cls-5" d="M130.224,0,0,76.851V228.032l130.225-67.4Z" transform="translate(317.447 559.513) rotate(180)"/>
      <path id="Tracé_46-7" data-name="Tracé 46" class="cls-6" d="M134.022,0,1.047,72.388,0,222.875l124.783-76.139Z" transform="translate(248.603 216.347) rotate(59)"/>
    </g>
    <g id="Groupe_38" data-name="Groupe 38" transform="matrix(0.966, 0.259, -0.259, 0.966, 3434.9, 7872.095)">
      <path id="Tracé_43-8" data-name="Tracé 43" class="cls-3" d="M.5,75.815v150.43L130.831,301.46l130.331-75.215V75.815L130.831.6Z" transform="translate(56.771 255.133)"/>
      <path id="Tracé_44-8" data-name="Tracé 44" class="cls-4" d="M5261.355,1952.073l-130.225-76.891v-151.26l130.225,67.437Z" transform="translate(-5073.754 -1392.441)"/>
      <path id="Tracé_45-8" data-name="Tracé 45" class="cls-5" d="M130.224,0,0,76.851V228.032l130.225-67.4Z" transform="translate(317.447 559.513) rotate(180)"/>
      <path id="Tracé_46-8" data-name="Tracé 46" class="cls-6" d="M134.022,0,1.047,72.388,0,222.875l124.783-76.139Z" transform="translate(248.603 216.347) rotate(59)"/>
    </g>
    <g id="Groupe_39" data-name="Groupe 39" transform="matrix(0.966, 0.259, -0.259, 0.966, 3434.9, 7872.095)">
      <path id="Tracé_43-9" data-name="Tracé 43" class="cls-3" d="M.5,75.815v150.43L130.831,301.46l130.331-75.215V75.815L130.831.6Z" transform="translate(56.771 255.133)"/>
      <path id="Tracé_44-9" data-name="Tracé 44" class="cls-4" d="M5261.355,1952.073l-130.225-76.891v-151.26l130.225,67.437Z" transform="translate(-5073.754 -1392.441)"/>
      <path id="Tracé_45-9" data-name="Tracé 45" class="cls-5" d="M130.224,0,0,76.851V228.032l130.225-67.4Z" transform="translate(317.447 559.513) rotate(180)"/>
      <path id="Tracé_46-9" data-name="Tracé 46" class="cls-6" d="M134.022,0,1.047,72.388,0,222.875l124.783-76.139Z" transform="translate(248.603 216.347) rotate(59)"/>
    </g>
    <g id="Groupe_40" data-name="Groupe 40" transform="matrix(0.966, 0.259, -0.259, 0.966, 3434.9, 7872.095)">
      <path id="Tracé_43-10" data-name="Tracé 43" class="cls-3" d="M.5,75.815v150.43L130.831,301.46l130.331-75.215V75.815L130.831.6Z" transform="translate(56.771 255.133)"/>
      <path id="Tracé_44-10" data-name="Tracé 44" class="cls-4" d="M5261.355,1952.073l-130.225-76.891v-151.26l130.225,67.437Z" transform="translate(-5073.754 -1392.441)"/>
      <path id="Tracé_45-10" data-name="Tracé 45" class="cls-5" d="M130.224,0,0,76.851V228.032l130.225-67.4Z" transform="translate(317.447 559.513) rotate(180)"/>
      <path id="Tracé_46-10" data-name="Tracé 46" class="cls-6" d="M134.022,0,1.047,72.388,0,222.875l124.783-76.139Z" transform="translate(248.603 216.347) rotate(59)"/>
    </g>
    <g id="Ellipse_57" data-name="Ellipse 57" class="cls-9" transform="translate(3483 8514)">
      <circle class="cls-12" cx="29.5" cy="29.5" r="29.5"/>
      <circle class="cls-13" cx="29.5" cy="29.5" r="29"/>
    </g>
    <g id="Ellipse_58" data-name="Ellipse 58" class="cls-10" transform="translate(3488 8519)">
      <circle class="cls-12" cx="24.5" cy="24.5" r="24.5"/>
      <circle class="cls-13" cx="24.5" cy="24.5" r="24"/>
    </g>
    <g id="Ellipse_59" data-name="Ellipse 59" class="cls-11" transform="translate(3494 8525)">
      <circle class="cls-12" cx="18.5" cy="18.5" r="18.5"/>
      <circle class="cls-13" cx="18.5" cy="18.5" r="18"/>
    </g>
  </g>
</svg>
