<svg xmlns="http://www.w3.org/2000/svg" xmlns:xlink="http://www.w3.org/1999/xlink" viewBox="1990 1411 375 812">
  <defs>
    <style>
      .cls-1 {
        clip-path: url(#clip-iPhone_X_10);
      }

      .cls-2, .cls-3, .cls-5 {
        fill: rgba(0,0,0,0.1);
      }

      .cls-2, .cls-3, .cls-4, .cls-5 {
        stroke: #9d9d9d;
      }

      .cls-2 {
        stroke-miterlimit: 10;
      }

      .cls-3 {
        opacity: 0.51;
      }

      .cls-4 {
        fill: rgba(0,0,0,0.28);
        stroke-width: 2px;
      }

      .cls-6 {
        stroke: none;
      }

      .cls-7 {
        fill: none;
      }

      .cls-8 {
        fill: #f5f5f5;
      }
    </style>
    <clipPath id="clip-iPhone_X_10">
      <rect x="1990" y="1411" width="375" height="812"/>
    </clipPath>
  </defs>
  <g id="iPhone_X_10" data-name="iPhone X – 10" class="cls-1">
    <rect class="cls-8" x="1990" y="1411" width="375" height="812"/>
    <g id="Symbole_4_1" data-name="Symbole 4 – 1" transform="translate(1990 1411)">
      <g id="Groupe_16" data-name="Groupe 16" transform="translate(-220.846 425)">
        <path id="Tracé_7" data-name="Tracé 7" class="cls-2" d="M.5,15.574V45.522L26.447,60.5,52.393,45.522V15.574L26.447.6Z" transform="translate(296.942 292.847)"/>
        <path id="Tracé_9" data-name="Tracé 9" class="cls-2" d="M.5,15.574V45.522L26.447,60.5,52.393,45.522V15.574L26.447.6Z" transform="translate(410.135 292.847)"/>
        <path id="Tracé_10" data-name="Tracé 10" class="cls-2" d="M.5,15.574V45.522L26.447,60.5,52.393,45.522V15.574L26.447.6Z" transform="translate(353.538 292.847)"/>
        <path id="Tracé_11" data-name="Tracé 11" class="cls-2" d="M.5,15.574V45.522L26.447,60.5,52.393,45.522V15.574L26.447.6Z" transform="translate(240.346 292.847)"/>
        <path id="Tracé_12" data-name="Tracé 12" class="cls-2" d="M.5,15.574V45.522L26.447,60.5,52.393,45.522V15.574L26.447.6Z" transform="translate(466.921 292.847)"/>
        <path id="Tracé_13" data-name="Tracé 13" class="cls-2" d="M.5,15.574V45.522L26.447,60.5,52.393,45.522V15.574L26.447.6Z" transform="translate(524.323 292.847)"/>
      </g>
      <path id="Tracé_36" data-name="Tracé 36" class="cls-2" d="M.5,11.092V32.076L18.681,42.569,36.861,32.076V11.092L18.681.6Z" transform="translate(169 685.811)"/>
    </g>
    <g id="Ellipse_7" data-name="Ellipse 7" class="cls-3" transform="translate(2015.453 2058.821)">
      <ellipse class="cls-6" cx="26.28" cy="26.28" rx="26.28" ry="26.28"/>
      <ellipse class="cls-7" cx="26.28" cy="26.28" rx="25.78" ry="25.78"/>
    </g>
    <g id="Ellipse_8" data-name="Ellipse 8" class="cls-4" transform="translate(2297.986 2058.821)">
      <ellipse class="cls-6" cx="26.28" cy="26.28" rx="26.28" ry="26.28"/>
      <ellipse class="cls-7" cx="26.28" cy="26.28" rx="25.28" ry="25.28"/>
    </g>
    <g id="Symbole_6_1" data-name="Symbole 6 – 1" transform="translate(1990 1411)">
      <path id="Tracé_35" data-name="Tracé 35" class="cls-2" d="M.5,10.952v20.7L19.318,42.008,38.137,31.656v-20.7L19.318.6Z" transform="translate(168.69 29.204)"/>
      <g id="Rectangle_1" data-name="Rectangle 1" class="cls-5" transform="translate(213.082 40.123)">
        <rect class="cls-6" width="58.591" height="20.751"/>
        <rect class="cls-7" x="0.5" y="0.5" width="57.591" height="19.751"/>
      </g>
      <g id="Rectangle_2" data-name="Rectangle 2" class="cls-5" transform="translate(103.327 40.123)">
        <rect class="cls-6" width="58.591" height="20.751"/>
        <rect class="cls-7" x="0.5" y="0.5" width="57.591" height="19.751"/>
      </g>
      <g id="Rectangle_7" data-name="Rectangle 7" class="cls-5" transform="translate(279.082 40.123)">
        <rect class="cls-6" width="34.591" height="20.751"/>
        <rect class="cls-7" x="0.5" y="0.5" width="33.591" height="19.751"/>
      </g>
      <g id="Rectangle_8" data-name="Rectangle 8" class="cls-5" transform="translate(61.082 40.123)">
        <rect class="cls-6" width="34.591" height="20.751"/>
        <rect class="cls-7" x="0.5" y="0.5" width="33.591" height="19.751"/>
      </g>
    </g>
  </g>
</svg>
