<svg xmlns="http://www.w3.org/2000/svg" xmlns:xlink="http://www.w3.org/1999/xlink" viewBox="2435 4189 375 812">
  <defs>
    <style>
      .cls-1 {
        clip-path: url(#clip-iPhone_X_36);
      }

      .cls-2 {
        fill: rgba(0,0,0,0.1);
        stroke-miterlimit: 10;
      }

      .cls-2, .cls-3 {
        stroke: #9d9d9d;
      }

      .cls-3, .cls-9 {
        fill: none;
      }

      .cls-4 {
        fill: #6e6e6e;
      }

      .cls-5, .cls-6 {
        fill: rgba(0,0,0,0.28);
      }

      .cls-5, .cls-6, .cls-7 {
        stroke: #707070;
      }

      .cls-5 {
        opacity: 0.28;
      }

      .cls-6 {
        opacity: 0.56;
      }

      .cls-7 {
        fill: rgba(0,0,0,0.43);
        opacity: 0.61;
      }

      .cls-8 {
        stroke: none;
      }

      .cls-10 {
        fill: #f5f5f5;
      }
    </style>
    <clipPath id="clip-iPhone_X_36">
      <rect x="2435" y="4189" width="375" height="812"/>
    </clipPath>
  </defs>
  <g id="iPhone_X_36" data-name="iPhone X – 36" class="cls-1">
    <rect class="cls-10" x="2435" y="4189" width="375" height="812"/>
    <path id="Tracé_35" data-name="Tracé 35" class="cls-2" d="M.5,10.952v20.7L19.318,42.008,38.137,31.656v-20.7L19.318.6Z" transform="translate(2603.69 4218.204)"/>
    <g id="Symbole_7_1" data-name="Symbole 7 – 1" transform="translate(2435 4189)">
      <g id="Rectangle_5" data-name="Rectangle 5" class="cls-3" transform="translate(25 149)">
        <rect class="cls-8" width="336" height="447"/>
        <rect class="cls-9" x="0.5" y="0.5" width="335" height="446"/>
      </g>
    </g>
    <g id="chevron-pointing-to-the-left" transform="translate(2642.046 4190.686) rotate(90)">
      <path id="Tracé_48" data-name="Tracé 48" class="cls-4" d="M93.618,19.578,105.832,7.364a3.092,3.092,0,0,0,.93-2.275,3.091,3.091,0,0,0-.93-2.274L103.947.93A3.247,3.247,0,0,0,99.4.93L83.013,17.29a3.246,3.246,0,0,0,0,4.549L99.4,38.2a3.246,3.246,0,0,0,4.549,0l1.885-1.885a3.076,3.076,0,0,0,.93-2.262,3.16,3.16,0,0,0-.93-2.287Z" transform="translate(0 0)"/>
    </g>
    <g id="Symbole_7_6" data-name="Symbole 7 – 6" transform="translate(2435 4189)">
      <g id="Rectangle_5-2" data-name="Rectangle 5" class="cls-3" transform="translate(25 149)">
        <rect class="cls-8" width="336" height="447"/>
        <rect class="cls-9" x="0.5" y="0.5" width="335" height="446"/>
      </g>
    </g>
    <g id="Ellipse_36" data-name="Ellipse 36" class="cls-5" transform="translate(2593 4810)">
      <circle class="cls-8" cx="29.5" cy="29.5" r="29.5"/>
      <circle class="cls-9" cx="29.5" cy="29.5" r="29"/>
    </g>
    <g id="Ellipse_37" data-name="Ellipse 37" class="cls-6" transform="translate(2598 4815)">
      <circle class="cls-8" cx="24.5" cy="24.5" r="24.5"/>
      <circle class="cls-9" cx="24.5" cy="24.5" r="24"/>
    </g>
    <g id="Ellipse_38" data-name="Ellipse 38" class="cls-7" transform="translate(2604 4821)">
      <circle class="cls-8" cx="18.5" cy="18.5" r="18.5"/>
      <circle class="cls-9" cx="18.5" cy="18.5" r="18"/>
    </g>
  </g>
</svg>
