<svg xmlns="http://www.w3.org/2000/svg" xmlns:xlink="http://www.w3.org/1999/xlink" viewBox="1990 7893 375 812">
  <defs>
    <style>
      .cls-1 {
        clip-path: url(#clip-iPhone_X_57);
      }

      .cls-2, .cls-3 {
        fill: rgba(0,0,0,0.28);
      }

      .cls-2, .cls-3, .cls-4 {
        stroke: #707070;
      }

      .cls-2 {
        opacity: 0.28;
      }

      .cls-3 {
        opacity: 0.56;
      }

      .cls-4 {
        fill: rgba(0,0,0,0.43);
        opacity: 0.61;
      }

      .cls-5 {
        stroke: none;
      }

      .cls-6 {
        fill: none;
      }

      .cls-7 {
        fill: #f5f5f5;
      }
    </style>
    <clipPath id="clip-iPhone_X_57">
      <rect x="1990" y="7893" width="375" height="812"/>
    </clipPath>
  </defs>
  <g id="iPhone_X_57" data-name="iPhone X – 57" class="cls-1">
    <rect class="cls-7" x="1990" y="7893" width="375" height="812"/>
    <g id="Symbole_8_6" data-name="Symbole 8 – 6" transform="translate(1990 7893)">
      <g id="Ellipse_33" data-name="Ellipse 33" class="cls-2" transform="translate(158 621)">
        <circle class="cls-5" cx="29.5" cy="29.5" r="29.5"/>
        <circle class="cls-6" cx="29.5" cy="29.5" r="29"/>
      </g>
      <g id="Ellipse_34" data-name="Ellipse 34" class="cls-3" transform="translate(163 626)">
        <circle class="cls-5" cx="24.5" cy="24.5" r="24.5"/>
        <circle class="cls-6" cx="24.5" cy="24.5" r="24"/>
      </g>
      <g id="Ellipse_35" data-name="Ellipse 35" class="cls-4" transform="translate(169 632)">
        <circle class="cls-5" cx="18.5" cy="18.5" r="18.5"/>
        <circle class="cls-6" cx="18.5" cy="18.5" r="18"/>
      </g>
    </g>
  </g>
</svg>
