<svg xmlns="http://www.w3.org/2000/svg" xmlns:xlink="http://www.w3.org/1999/xlink" viewBox="4660 2337 375 812">
  <defs>
    <style>
      .cls-1 {
        clip-path: url(#clip-iPhone_X_24);
      }

      .cls-2 {
        fill: rgba(0,0,0,0.52);
        opacity: 0.51;
      }

      .cls-2, .cls-3, .cls-6, .cls-7 {
        stroke: #9d9d9d;
      }

      .cls-3, .cls-7, .cls-8 {
        fill: rgba(0,0,0,0.1);
      }

      .cls-3, .cls-5 {
        stroke-miterlimit: 10;
      }

      .cls-4, .cls-5 {
        fill: #fff;
        opacity: 0.5;
      }

      .cls-5 {
        stroke: #f5f5f5;
      }

      .cls-10, .cls-6 {
        fill: none;
      }

      .cls-8 {
        stroke: #646464;
        stroke-width: 2px;
        opacity: 0.48;
      }

      .cls-9 {
        stroke: none;
      }

      .cls-11 {
        fill: #f5f5f5;
      }
    </style>
    <clipPath id="clip-iPhone_X_24">
      <rect x="4660" y="2337" width="375" height="812"/>
    </clipPath>
  </defs>
  <g id="iPhone_X_24" data-name="iPhone X – 24" class="cls-1">
    <rect class="cls-11" x="4660" y="2337" width="375" height="812"/>
    <g id="Ellipse_5" data-name="Ellipse 5" class="cls-2" transform="translate(4680.453 2984.821)">
      <ellipse class="cls-9" cx="26.28" cy="26.28" rx="26.28" ry="26.28"/>
      <ellipse class="cls-10" cx="26.28" cy="26.28" rx="25.78" ry="25.78"/>
    </g>
    <g id="Groupe_18" data-name="Groupe 18" transform="translate(4391.771 2539.239)">
      <path id="Tracé_37" data-name="Tracé 37" class="cls-3" d="M.5,29.487V87.261l50.055,28.887,50.055-28.887V29.487L50.555.6Z" transform="translate(461.306 240.769)"/>
      <path id="Tracé_38" data-name="Tracé 38" class="cls-3" d="M.5,29.487V87.261l50.055,28.887,50.055-28.887V29.487L50.555.6Z" transform="translate(349.363 240.769)"/>
      <path id="Tracé_39" data-name="Tracé 39" class="cls-4" d="M.5,29.487V87.261l50.055,28.887,50.055-28.887V29.487L50.555.6Z" transform="translate(516.995 144.804)"/>
      <path id="Tracé_40" data-name="Tracé 40" class="cls-4" d="M.5,29.487V87.261l50.055,28.887,50.055-28.887V29.487L50.555.6Z" transform="translate(293.183 144.385)"/>
      <path id="Tracé_41" data-name="Tracé 41" class="cls-4" d="M.5,29.487V87.261l50.055,28.887,50.055-28.887V29.487L50.555.6Z" transform="translate(461.306 49.244)"/>
      <path id="Tracé_42" data-name="Tracé 42" class="cls-5" d="M.5,29.487V87.261l50.055,28.887,50.055-28.887V29.487L50.555.6Z" transform="translate(349.363 49.244)"/>
    </g>
    <g id="Symbole_2_20" data-name="Symbole 2 – 20" transform="translate(4660 2337)">
      <g id="Rectangle_5" data-name="Rectangle 5" class="cls-6" transform="translate(25 118)">
        <rect class="cls-9" width="336" height="120"/>
        <rect class="cls-10" x="0.5" y="0.5" width="335" height="119"/>
      </g>
    </g>
    <g id="Symbole_4_15" data-name="Symbole 4 – 15" transform="translate(4660 2337)">
      <g id="Groupe_16" data-name="Groupe 16" transform="translate(-220.846 425)">
        <path id="Tracé_7" data-name="Tracé 7" class="cls-3" d="M.5,15.574V45.522L26.447,60.5,52.393,45.522V15.574L26.447.6Z" transform="translate(296.942 292.847)"/>
        <path id="Tracé_9" data-name="Tracé 9" class="cls-3" d="M.5,15.574V45.522L26.447,60.5,52.393,45.522V15.574L26.447.6Z" transform="translate(410.135 292.847)"/>
        <path id="Tracé_10" data-name="Tracé 10" class="cls-3" d="M.5,15.574V45.522L26.447,60.5,52.393,45.522V15.574L26.447.6Z" transform="translate(353.538 292.847)"/>
        <path id="Tracé_11" data-name="Tracé 11" class="cls-3" d="M.5,15.574V45.522L26.447,60.5,52.393,45.522V15.574L26.447.6Z" transform="translate(240.346 292.847)"/>
        <path id="Tracé_12" data-name="Tracé 12" class="cls-3" d="M.5,15.574V45.522L26.447,60.5,52.393,45.522V15.574L26.447.6Z" transform="translate(466.921 292.847)"/>
        <path id="Tracé_13" data-name="Tracé 13" class="cls-3" d="M.5,15.574V45.522L26.447,60.5,52.393,45.522V15.574L26.447.6Z" transform="translate(524.323 292.847)"/>
      </g>
      <path id="Tracé_36" data-name="Tracé 36" class="cls-3" d="M.5,11.092V32.076L18.681,42.569,36.861,32.076V11.092L18.681.6Z" transform="translate(169 685.811)"/>
    </g>
    <g id="Symbole_6_12" data-name="Symbole 6 – 12" transform="translate(4660 2337)">
      <path id="Tracé_35" data-name="Tracé 35" class="cls-3" d="M.5,10.952v20.7L19.318,42.008,38.137,31.656v-20.7L19.318.6Z" transform="translate(168.69 29.204)"/>
      <g id="Rectangle_1" data-name="Rectangle 1" class="cls-7" transform="translate(213.082 40.123)">
        <rect class="cls-9" width="58.591" height="20.751"/>
        <rect class="cls-10" x="0.5" y="0.5" width="57.591" height="19.751"/>
      </g>
      <g id="Rectangle_2" data-name="Rectangle 2" class="cls-7" transform="translate(103.327 40.123)">
        <rect class="cls-9" width="58.591" height="20.751"/>
        <rect class="cls-10" x="0.5" y="0.5" width="57.591" height="19.751"/>
      </g>
      <g id="Rectangle_7" data-name="Rectangle 7" class="cls-7" transform="translate(279.082 40.123)">
        <rect class="cls-9" width="34.591" height="20.751"/>
        <rect class="cls-10" x="0.5" y="0.5" width="33.591" height="19.751"/>
      </g>
      <g id="Rectangle_8" data-name="Rectangle 8" class="cls-7" transform="translate(61.082 40.123)">
        <rect class="cls-9" width="34.591" height="20.751"/>
        <rect class="cls-10" x="0.5" y="0.5" width="33.591" height="19.751"/>
      </g>
    </g>
    <g id="Symbole_9_7" data-name="Symbole 9 – 7" transform="translate(4660 2337)">
      <g id="Ellipse_63" data-name="Ellipse 63" class="cls-8" transform="translate(307.986 647.821)">
        <ellipse class="cls-9" cx="26.28" cy="26.28" rx="26.28" ry="26.28"/>
        <ellipse class="cls-10" cx="26.28" cy="26.28" rx="25.28" ry="25.28"/>
      </g>
    </g>
  </g>
</svg>
